8600 869 262
9473 7894 260
5071 1797 238
7918 9703 260
5496 3201 238
9715 2786 262
8344 5812 262
4868 2345 238
2612 6257 262
1412 3009 217
4765 1163 238
2930 425 217
7818 9694 260
6196 7203 257
7726 3778 262
1339 1890 180
4966 3679 238
8283 2682 262
8888 8860 185
1328 3501 217
2295 467 183
2214 9157 262
7651 4105 262
3050 7334 262
6178 9254 257
10000 7879 260
4898 4963 210
4274 5689 236
1374 8427 262
9251 4558 262
2896 2212 209
1614 9132 262
759 7546 262
4642 6507 262
8771 3392 262
5047 5782 236
8914 5891 262
1698 4718 238
9490 4821 262
8738 6816 257
5612 7701 262
1992 6054 238
7996 5674 262
2037 4630 238
2951 965 217
1961 6483 262
9684 4692 262
8664 5617 262
1596 6562 262
671 7809 262
8533 6398 257
4823 4881 166
2170 9200 262
7500 2594 262
2380 6453 262
6129 253 238
7925 4768 262
5226 3633 238
3622 9316 262
9116 8737 247
5307 5069 192
4696 3578 238
8738 9500 260
6686 3772 262
196 6192 262
8529 2253 262
7021 4431 262
8867 9576 260
2013 6021 238
4850 5421 210
8059 2628 262
7607 7927 221
7876 9072 252
1597 3907 238
2628 7634 262
6250 6314 156
6667 2217 262
5021 4499 210
7937 5691 262
4757 112 238
87 1508 182
8369 3237 262
1047 5542 238
2356 953 183
6906 102 262
3700 3118 207
2028 835 182
2124 4022 238
2328 1653 183
9326 7621 260
6773 7512 257
8266 5770 262
1618 7785 262
6103 1219 238
7187 5936 262
4747 7280 262
9926 6444 260
6184 5982 262
2135 1001 182
2627 4346 238
1790 2754 209
8489 5657 262
7137 7395 208
7093 2752 262
7383 2841 262
7762 5204 262
794 385 171
3773 7588 262
1412 7481 262
6397 8290 257
9295 1135 262
1644 9970 262
8281 2357 262
4920 1663 238
6672 2190 262
478 845 171
6192 4840 262
3008 1103 217
6511 5252 262
4069 3241 238
1609 3217 217
4659 7311 262
7901 8172 252
640 6668 262
8922 8498 216
2027 7851 262
9779 2039 262
9834 2447 262
210 6395 262
5970 7286 262
6574 9632 260
5338 4323 215
4053 5916 236
670 232 145
8498 4897 262
4308 8769 262
3187 5639 238
10 7755 262
5670 4177 236
9635 3654 262
2262 1143 183
9223 7821 252
1033 6668 262
9127 6058 262
5670 3389 238
1753 2839 209
2724 9492 262
1981 5119 238
1218 1042 182
9027 6000 262
3289 3397 181
4695 8426 262
3084 1453 217
1882 7970 262
966 6855 262
7847 6669 257
5184 3812 215
6950 6557 257
7898 2100 262
9737 3308 262
635 8891 262
6340 5195 262
4455 5063 210
8674 5092 262
4974 2859 238
2161 3916 238
7760 865 262
4823 6946 262
3374 9042 262
1497 7522 262
6557 8861 257
744 9958 262
2921 2562 217
390 2337 183
712 5908 238
8759 8359 216
2290 1971 183
4840 5178 210
2447 3977 238
2805 9582 262
9155 7271 252
9766 6695 260
3302 312 217
7130 1217 262
6458 9326 260
5572 7149 262
9521 9019 260
8237 6825 257
8423 5745 262
2384 4853 238
6201 4931 262
6198 6255 187
8083 8023 190
8144 7216 252
7939 104 262
8897 6824 257
704 204 171
2041 7091 262
3806 1707 238
1663 4448 238
1484 8186 262
8892 1656 262
450 3250 217
3230 4709 238
4239 6439 262
9926 1743 262
7158 1475 262
1530 8789 262
8136 6500 257
4215 235 238
6928 5743 262
9250 8450 247
6413 3368 262
8166 9872 260
1864 20 182
1535 4618 238
9153 4488 262
2202 4274 238
4659 13 238
9675 5471 262
8613 1938 262
3142 4606 238
9738 1416 262
4975 2614 238
3888 4241 202
3314 5386 238
8479 5512 262
3711 3664 238
9465 3893 262
5975 5304 236
4414 4118 215
8210 2283 262
4903 1573 238
7669 8495 252
5406 8201 262
1554 7560 262
8046 6368 257
3695 3309 207
2845 8362 262
1363 5061 238
4210 322 238
6326 4534 262
5067 5829 236
5481 3148 238
1084 2027 182
8659 1510 262
1763 8704 262
165 7137 262
2738 5452 238
3073 7529 262
